<?xml version="1.0" encoding="UTF-8"?>
<graphml xmlns="http://graphml.graphdrawing.org/xmlns"
         xmlns:xsi="http://www.w3.org/2001/XMLSchema-instance"
         xsi:schemaLocation="http://graphml.graphdrawing.org/xmlns
         http://graphml.graphdrawing.org/xmlns/1.0/graphml.xsd">
<!-- Created by igraph -->
  <key id="v_id_1" for="node" attr.name="id_1" attr.type="string"/>
  <key id="v_id_2" for="node" attr.name="id_2" attr.type="string"/>
  <key id="v_name" for="node" attr.name="name" attr.type="string"/>
  <key id="e_weight_1" for="edge" attr.name="weight_1" attr.type="double"/>
  <key id="e_weight_2" for="edge" attr.name="weight_2" attr.type="double"/>
  <graph id="G" edgedefault="undirected">
    <node id="n0">
      <data key="v_id_1">n0</data>
      <data key="v_id_2">n0</data>
      <data key="v_name">Boardgame</data>
    </node>
    <node id="n1">
      <data key="v_id_1">n1</data>
      <data key="v_id_2">n1</data>
      <data key="v_name">HERApp</data>
    </node>
    <node id="n2">
      <data key="v_id_1">n2</data>
      <data key="v_id_2">n2</data>
      <data key="v_name">TwitterVac</data>
    </node>
    <node id="n3">
      <data key="v_id_1">n3</data>
      <data key="v_id_2">n3</data>
      <data key="v_name">VaEsGa</data>
    </node>
    <node id="n4">
      <data key="v_id_1">n4</data>
      <data key="v_id_2">n4</data>
      <data key="v_name">VaccineDataDump</data>
    </node>
    <node id="n5">
      <data key="v_id_1">n5</data>
      <data key="v_id_2">n5</data>
      <data key="v_name">vaxtrends</data>
    </node>
    <node id="n6">
      <data key="v_id_1">n6</data>
      <data key="v_id_2">n6</data>
      <data key="v_name">greg001</data>
    </node>
    <node id="n7">
      <data key="v_id_1">n7</data>
      <data key="v_id_2">n7</data>
      <data key="v_name">Hulkbooster</data>
    </node>
    <node id="n8">
      <data key="v_id_1">n8</data>
      <data key="v_id_2">n8</data>
      <data key="v_name">HarmonizeVaccination</data>
    </node>
    <node id="n9">
      <data key="v_id_1">n9</data>
      <data key="v_id_2">n9</data>
      <data key="v_name">metaimmune</data>
    </node>
    <node id="n10">
      <data key="v_id_1">n10</data>
      <data key="v_id_2">n10</data>
      <data key="v_name">biloba</data>
    </node>
    <node id="n11">
      <data key="v_id_1">n11</data>
      <data key="v_id_2">n11</data>
      <data key="v_name">WakuSenshi</data>
    </node>
    <node id="n12">
      <data key="v_id_1">n12</data>
      <data key="v_id_2">n12</data>
      <data key="v_name">Crawler</data>
    </node>
    <node id="n13">
      <data key="v_id_1">n13</data>
      <data key="v_id_2">n13</data>
      <data key="v_name">PassItOn</data>
    </node>
    <node id="n14">
      <data key="v_id_1">n14</data>
      <data key="v_id_2">n14</data>
      <data key="v_name">GoViral</data>
    </node>
    <node id="n15">
      <data key="v_id_1">n15</data>
      <data key="v_id_2">n15</data>
      <data key="v_name">mva</data>
    </node>
    <node id="n16">
      <data key="v_id_1">n16</data>
      <data key="v_id_2">n16</data>
      <data key="v_name">VaccRiskAssess</data>
    </node>
    <node id="n17">
      <data key="v_id_1">n17</data>
      <data key="v_id_2">n17</data>
      <data key="v_name">VaxTopics</data>
    </node>
    <node id="n18">
      <data key="v_id_1">n18</data>
      <data key="v_id_2">n18</data>
      <data key="v_name">VaxAdministrationOnSocialMedia</data>
    </node>
    <node id="n19">
      <data key="v_id_1">n19</data>
      <data key="v_id_2">n19</data>
      <data key="v_name">VaxHesitancyOnSocialMedia</data>
    </node>
    <node id="n20">
      <data key="v_id_1">n20</data>
      <data key="v_id_2">n20</data>
      <data key="v_name">committopromotevaccination</data>
    </node>
    <node id="n21">
      <data key="v_id_1">n21</data>
      <data key="v_id_2">n21</data>
      <data key="v_name">tb</data>
    </node>
    <edge source="n18" target="n19">
      <data key="e_weight_1">1</data>
      <data key="e_weight_2">2</data>
    </edge>
    <edge source="n17" target="n19">
      <data key="e_weight_1">1</data>
      <data key="e_weight_2">2</data>
    </edge>
    <edge source="n17" target="n18">
      <data key="e_weight_1">1</data>
      <data key="e_weight_2">2</data>
    </edge>
    <edge source="n16" target="n21">
      <data key="e_weight_1">2</data>
    </edge>
    <edge source="n16" target="n17">
      <data key="e_weight_2">1</data>
    </edge>
    <edge source="n15" target="n20">
      <data key="e_weight_2">1</data>
    </edge>
    <edge source="n15" target="n19">
      <data key="e_weight_2">1</data>
    </edge>
    <edge source="n15" target="n18">
      <data key="e_weight_2">1</data>
    </edge>
    <edge source="n15" target="n17">
      <data key="e_weight_2">2</data>
    </edge>
    <edge source="n13" target="n20">
      <data key="e_weight_1">1</data>
    </edge>
    <edge source="n11" target="n13">
      <data key="e_weight_2">4</data>
    </edge>
    <edge source="n10" target="n21">
      <data key="e_weight_1">1</data>
    </edge>
    <edge source="n10" target="n17">
      <data key="e_weight_2">1</data>
    </edge>
    <edge source="n10" target="n15">
      <data key="e_weight_2">2</data>
    </edge>
    <edge source="n10" target="n13">
      <data key="e_weight_2">1</data>
    </edge>
    <edge source="n9" target="n17">
      <data key="e_weight_2">1</data>
    </edge>
    <edge source="n9" target="n15">
      <data key="e_weight_2">1</data>
    </edge>
    <edge source="n9" target="n10">
      <data key="e_weight_2">1</data>
    </edge>
    <edge source="n8" target="n17">
      <data key="e_weight_2">1</data>
    </edge>
    <edge source="n8" target="n16">
      <data key="e_weight_2">1</data>
    </edge>
    <edge source="n8" target="n15">
      <data key="e_weight_2">1</data>
    </edge>
    <edge source="n8" target="n14">
      <data key="e_weight_2">1</data>
    </edge>
    <edge source="n8" target="n10">
      <data key="e_weight_2">1</data>
    </edge>
    <edge source="n7" target="n21">
      <data key="e_weight_1">2</data>
    </edge>
    <edge source="n7" target="n19">
      <data key="e_weight_2">1</data>
    </edge>
    <edge source="n7" target="n18">
      <data key="e_weight_2">1</data>
    </edge>
    <edge source="n7" target="n17">
      <data key="e_weight_2">3</data>
    </edge>
    <edge source="n7" target="n16">
      <data key="e_weight_1">1</data>
    </edge>
    <edge source="n7" target="n15">
      <data key="e_weight_2">2</data>
    </edge>
    <edge source="n7" target="n10">
      <data key="e_weight_1">1</data>
      <data key="e_weight_2">1</data>
    </edge>
    <edge source="n7" target="n9">
      <data key="e_weight_2">1</data>
    </edge>
    <edge source="n6" target="n9">
      <data key="e_weight_2">1</data>
    </edge>
    <edge source="n5" target="n21">
      <data key="e_weight_1">2</data>
    </edge>
    <edge source="n5" target="n17">
      <data key="e_weight_1">1</data>
      <data key="e_weight_2">1</data>
    </edge>
    <edge source="n5" target="n16">
      <data key="e_weight_1">1</data>
    </edge>
    <edge source="n5" target="n15">
      <data key="e_weight_2">1</data>
    </edge>
    <edge source="n5" target="n10">
      <data key="e_weight_2">1</data>
    </edge>
    <edge source="n5" target="n9">
      <data key="e_weight_2">2</data>
    </edge>
    <edge source="n5" target="n8">
      <data key="e_weight_1">1</data>
    </edge>
    <edge source="n5" target="n7">
      <data key="e_weight_2">1</data>
    </edge>
    <edge source="n5" target="n6">
      <data key="e_weight_2">1</data>
    </edge>
    <edge source="n4" target="n21">
      <data key="e_weight_1">3</data>
    </edge>
    <edge source="n4" target="n16">
      <data key="e_weight_1">2</data>
    </edge>
    <edge source="n4" target="n8">
      <data key="e_weight_1">1</data>
    </edge>
    <edge source="n4" target="n5">
      <data key="e_weight_1">4</data>
    </edge>
    <edge source="n3" target="n19">
      <data key="e_weight_2">1</data>
    </edge>
    <edge source="n3" target="n18">
      <data key="e_weight_2">1</data>
    </edge>
    <edge source="n3" target="n17">
      <data key="e_weight_2">1</data>
    </edge>
    <edge source="n3" target="n13">
      <data key="e_weight_2">1</data>
    </edge>
    <edge source="n3" target="n11">
      <data key="e_weight_2">1</data>
    </edge>
    <edge source="n2" target="n19">
      <data key="e_weight_1">1</data>
      <data key="e_weight_2">1</data>
    </edge>
    <edge source="n2" target="n18">
      <data key="e_weight_1">1</data>
      <data key="e_weight_2">1</data>
    </edge>
    <edge source="n2" target="n17">
      <data key="e_weight_1">2</data>
      <data key="e_weight_2">3</data>
    </edge>
    <edge source="n2" target="n15">
      <data key="e_weight_2">2</data>
    </edge>
    <edge source="n2" target="n10">
      <data key="e_weight_2">1</data>
    </edge>
    <edge source="n2" target="n9">
      <data key="e_weight_2">1</data>
    </edge>
    <edge source="n2" target="n7">
      <data key="e_weight_2">3</data>
    </edge>
    <edge source="n2" target="n6">
      <data key="e_weight_1">1</data>
    </edge>
    <edge source="n2" target="n5">
      <data key="e_weight_1">1</data>
      <data key="e_weight_2">1</data>
    </edge>
    <edge source="n1" target="n17">
      <data key="e_weight_1">1</data>
    </edge>
    <edge source="n1" target="n8">
      <data key="e_weight_1">1</data>
    </edge>
    <edge source="n1" target="n5">
      <data key="e_weight_1">2</data>
    </edge>
    <edge source="n1" target="n4">
      <data key="e_weight_1">1</data>
    </edge>
    <edge source="n1" target="n2">
      <data key="e_weight_1">1</data>
    </edge>
  </graph>
</graphml>
